INFO     test_brand:test_brand.py:15 开始测试
INFO     test_brand:test_brand.py:18 响应码为:200
INFO     test_brand:test_brand.py:19 响应内容:{"code":200,"message":"操作成功","data":{"pageNum":1,"pageSize":5,"totalPage":3,"total":12,"list":[{"id":6,"name":"小米","firstLetter":"M","sort":500,"factoryStatus":1,"showStatus":1,"productCount":100,"productCommentCount":100,"logo":"http://macro-oss.oss-cn-shenzhen.aliyuncs.com/mall/images/20200607/5565f5a2N0b8169ae.jpg","bigPic":"http://macro-oss.oss-cn-shenzhen.aliyuncs.com/mall/images/20221108/xiaomi_banner_01.png","brandStory":null},{"id":51,"name":"苹果","firstLetter":"A","sort":200,"factoryStatus":1,"showStatus":1,"productCount":55,"productCommentCount":200,"logo":"http://macro-oss.oss-cn-shenzhen.aliyuncs.com/mall/images/20200607/49b30bb0377030d1.jpg","bigPic":"http://macro-oss.oss-cn-shenzhen.aliyuncs.com/mall/images/20221108/apple_banner_01.png","brandStory":null},{"id":50,"name":"海澜之家","firstLetter":"H","sort":200,"factoryStatus":1,"showStatus":1,"productCount":66,"productCommentCount":300,"logo":"http://macro-oss.oss-cn-shenzhen.aliyuncs.com/mall/images/20200607/5a5c69b9N5d6c5696.jpg","bigPic":"http://img10.360buyimg.com/cms/jfs/t1/133148/4/1605/470028/5edaf5ccEd7a687a9/e0a007631361ff75.jpg","brandStory":null},{"id":49,"name":"七匹狼","firstLetter":"S","sort":200,"factoryStatus":1,"showStatus":1,"productCount":77,"productCommentCount":400,"logo":"http://macro-oss.oss-cn-shenzhen.aliyuncs.com/mall/images/20190525/qipilang.png","bigPic":null,"brandStory":null},{"id":2,"name":"三星","firstLetter":"S","sort":100,"factoryStatus":1,"showStatus":1,"productCount":100,"productCommentCount":100,"logo":"http://macro-oss.oss-cn-shenzhen.aliyuncs.com/mall/images/20200607/57201b47N7bf15715.jpg","bigPic":"http://macro-oss.oss-cn-shenzhen.aliyuncs.com/mall/images/20221108/sanxing_banner_01.png","brandStory":null}]}}
INFO     test_brand:test_brand.py:24 品牌列表为:[{'id': 6, 'name': '小米', 'firstLetter': 'M', 'sort': 500, 'factoryStatus': 1, 'showStatus': 1, 'productCount': 100, 'productCommentCount': 100, 'logo': 'http://macro-oss.oss-cn-shenzhen.aliyuncs.com/mall/images/20200607/5565f5a2N0b8169ae.jpg', 'bigPic': 'http://macro-oss.oss-cn-shenzhen.aliyuncs.com/mall/images/20221108/xiaomi_banner_01.png', 'brandStory': None}, {'id': 51, 'name': '苹果', 'firstLetter': 'A', 'sort': 200, 'factoryStatus': 1, 'showStatus': 1, 'productCount': 55, 'productCommentCount': 200, 'logo': 'http://macro-oss.oss-cn-shenzhen.aliyuncs.com/mall/images/20200607/49b30bb0377030d1.jpg', 'bigPic': 'http://macro-oss.oss-cn-shenzhen.aliyuncs.com/mall/images/20221108/apple_banner_01.png', 'brandStory': None}, {'id': 50, 'name': '海澜之家', 'firstLetter': 'H', 'sort': 200, 'factoryStatus': 1, 'showStatus': 1, 'productCount': 66, 'productCommentCount': 300, 'logo': 'http://macro-oss.oss-cn-shenzhen.aliyuncs.com/mall/images/20200607/5a5c69b9N5d6c5696.jpg', 'bigPic': 'http://img10.360buyimg.com/cms/jfs/t1/133148/4/1605/470028/5edaf5ccEd7a687a9/e0a007631361ff75.jpg', 'brandStory': None}, {'id': 49, 'name': '七匹狼', 'firstLetter': 'S', 'sort': 200, 'factoryStatus': 1, 'showStatus': 1, 'productCount': 77, 'productCommentCount': 400, 'logo': 'http://macro-oss.oss-cn-shenzhen.aliyuncs.com/mall/images/20190525/qipilang.png', 'bigPic': None, 'brandStory': None}, {'id': 2, 'name': '三星', 'firstLetter': 'S', 'sort': 100, 'factoryStatus': 1, 'showStatus': 1, 'productCount': 100, 'productCommentCount': 100, 'logo': 'http://macro-oss.oss-cn-shenzhen.aliyuncs.com/mall/images/20200607/57201b47N7bf15715.jpg', 'bigPic': 'http://macro-oss.oss-cn-shenzhen.aliyuncs.com/mall/images/20221108/sanxing_banner_01.png', 'brandStory': None}]
INFO     test_brand:test_brand.py:25 品牌有多少类:5
INFO     test_brand:test_brand.py:34 品牌列表查询测试通过