[32mINFO    [0m test_product:test_product.py:15 ејҖе§ӢжөӢиҜ•
[32mINFO    [0m test_product:test_product.py:18 е“Қеә”з Ғдёә:200
[32mINFO    [0m test_product:test_product.py:19 е“Қеә”еҶ…е®№:{"code":200,"message":"ж“ҚдҪңжҲҗеҠҹ","data":{"pageNum":1,"pageSize":5,"totalPage":8,"total":39,"list":[{"id":1,"brandId":49,"productCategoryId":7,"feightTemplateId":0,"productAttributeCategoryId":0,"name":"й“¶иүІжҳҹиҠ’еҲәз»ЈзҪ‘зәұеә•иЈӨ","pic":"http://macro-oss.oss-cn-shenzhen.aliyuncs.com/mall/images/20180522/web.png","productSn":"No86577","deleteStatus":0,"publishStatus":1,"newStatus":1,"recommandStatus":1,"verifyStatus":1,"sort":100,"sale":0,"price":100.00,"promotionPrice":null,"giftGrowth":0,"giftPoint":100,"usePointLimit":null,"subTitle":"111","originalPrice":120.00,"stock":100,"lowStock":20,"unit":"д»¶","weight":1000.00,"previewStatus":0,"serviceIds":null,"keywords":"й“¶иүІжҳҹиҠ’еҲәз»ЈзҪ‘зәұеә•иЈӨ","note":"й“¶иүІжҳҹиҠ’еҲәз»ЈзҪ‘зәұеә•иЈӨ","albumPics":null,"detailTitle":"й“¶иүІжҳҹиҠ’еҲәз»ЈзҪ‘зәұеә•иЈӨ","promotionStartTime":null,"promotionEndTime":null,"promotionPerLimit":null,"promotionType":0,"brandName":"дёғеҢ№зӢј","productCategoryName":"еӨ–еҘ—","description":null,"detailDesc":null,"detailHtml":null,"detailMobileHtml":null},{"id":2,"brandId":49,"productCategoryId":7,"feightTemplateId":0,"productAttributeCategoryId":0,"name":"й“¶иүІжҳҹиҠ’еҲәз»ЈзҪ‘зәұеә•иЈӨ2","pic":"http://macro-oss.oss-cn-shenzhen.aliyuncs.com/mall/images/20180522/web.png","productSn":"No86578","deleteStatus":0,"publishStatus":1,"newStatus":1,"recommandStatus":1,"verifyStatus":1,"sort":1,"sale":0,"price":100.00,"promotionPrice":null,"giftGrowth":0,"giftPoint":100,"usePointLimit":null,"subTitle":"111","originalPrice":120.00,"stock":100,"lowStock":20,"unit":"д»¶","weight":1000.00,"previewStatus":0,"serviceIds":null,"keywords":"й“¶иүІжҳҹиҠ’еҲәз»ЈзҪ‘зәұеә•иЈӨ2","note":"й“¶иүІжҳҹиҠ’еҲәз»ЈзҪ‘зәұеә•иЈӨ","albumPics":null,"detailTitle":"й“¶иүІжҳҹиҠ’еҲәз»ЈзҪ‘зәұеә•иЈӨ","promotionStartTime":null,"promotionEndTime":null,"promotionPerLimit":null,"promotionType":0,"brandName":"дёғеҢ№зӢј","productCategoryName":"еӨ–еҘ—","description":null,"detailDesc":null,"detailHtml":null,"detailMobileHtml":null},{"id":3,"brandId":1,"productCategoryId":7,"feightTemplateId":0,"productAttributeCategoryId":0,"name":"й“¶иүІжҳҹиҠ’еҲәз»ЈзҪ‘зәұеә•иЈӨ3","pic":"http://macro-oss.oss-cn-shenzhen.aliyuncs.com/mall/images/20180522/web.png","productSn":"No86579","deleteStatus":0,"publishStatus":1,"newStatus":1,"recommandStatus":1,"verifyStatus":1,"sort":1,"sale":0,"price":100.00,"promotionPrice":null,"giftGrowth":0,"giftPoint":100,"usePointLimit":null,"subTitle":"111","originalPrice":120.00,"stock":100,"lowStock":20,"unit":"д»¶","weight":1000.00,"previewStatus":0,"serviceIds":null,"keywords":"й“¶иүІжҳҹиҠ’еҲәз»ЈзҪ‘зәұеә•иЈӨ3","note":"й“¶иүІжҳҹиҠ’еҲәз»ЈзҪ‘зәұеә•иЈӨ","albumPics":null,"detailTitle":"й“¶иүІжҳҹиҠ’еҲәз»ЈзҪ‘зәұеә•иЈӨ","promotionStartTime":null,"promotionEndTime":null,"promotionPerLimit":null,"promotionType":0,"brandName":"дёҮе’Ң","productCategoryName":"еӨ–еҘ—","description":null,"detailDesc":null,"detailHtml":null,"detailMobileHtml":null},{"id":4,"brandId":1,"productCategoryId":7,"feightTemplateId":0,"productAttributeCategoryId":0,"name":"й“¶иүІжҳҹиҠ’еҲәз»ЈзҪ‘зәұеә•иЈӨ4","pic":"http://macro-oss.oss-cn-shenzhen.aliyuncs.com/mall/images/20180522/web.png","productSn":"No86580","deleteStatus":0,"publishStatus":1,"newStatus":1,"recommandStatus":1,"verifyStatus":1,"sort":1,"sale":0,"price":100.00,"promotionPrice":null,"giftGrowth":0,"giftPoint":100,"usePointLimit":null,"subTitle":"111","originalPrice":120.00,"stock":100,"lowStock":20,"unit":"д»¶","weight":1000.00,"previewStatus":0,"serviceIds":null,"keywords":"й“¶иүІжҳҹиҠ’еҲәз»ЈзҪ‘зәұеә•иЈӨ4","note":"й“¶иүІжҳҹиҠ’еҲәз»ЈзҪ‘зәұеә•иЈӨ","albumPics":null,"detailTitle":"й“¶иүІжҳҹиҠ’еҲәз»ЈзҪ‘зәұеә•иЈӨ","promotionStartTime":null,"promotionEndTime":null,"promotionPerLimit":null,"promotionType":0,"brandName":"дёҮе’Ң","productCategoryName":"еӨ–еҘ—","description":null,"detailDesc":null,"detailHtml":null,"detailMobileHtml":null},{"id":5,"brandId":1,"productCategoryId":7,"feightTemplateId":0,"productAttributeCategoryId":0,"name":"й“¶иүІжҳҹиҠ’еҲәз»ЈзҪ‘зәұеә•иЈӨ5","pic":"http://macro-oss.oss-cn-shenzhen.aliyuncs.com/mall/images/20180522/web.png","productSn":"No86581","deleteStatus":0,"publishStatus":0,"newStatus":1,"recommandStatus":1,"verifyStatus":1,"sort":1,"sale":0,"price":100.00,"promotionPrice":null,"giftGrowth":0,"giftPoint":100,"usePointLimit":null,"subTitle":"111","originalPrice":120.00,"stock":100,"lowStock":20,"unit":"д»¶","weight":1000.00,"previewStatus":0,"serviceIds":null,"keywords":"й“¶иүІжҳҹиҠ’еҲәз»ЈзҪ‘зәұеә•иЈӨ5","note":"й“¶иүІжҳҹиҠ’еҲәз»ЈзҪ‘зәұеә•иЈӨ","albumPics":null,"detailTitle":"й“¶иүІжҳҹиҠ’еҲәз»ЈзҪ‘зәұеә•иЈӨ","promotionStartTime":null,"promotionEndTime":null,"promotionPerLimit":null,"promotionType":0,"brandName":"дёҮе’Ң","productCategoryName":"еӨ–еҘ—","description":null,"detailDesc":null,"detailHtml":null,"detailMobileHtml":null}]}}
[32mINFO    [0m test_product:test_product.py:24 е•Ҷе“ҒеҲ—иЎЁдёә:[{'id': 1, 'brandId': 49, 'productCategoryId': 7, 'feightTemplateId': 0, 'productAttributeCategoryId': 0, 'name': 'й“¶иүІжҳҹиҠ’еҲәз»ЈзҪ‘зәұеә•иЈӨ', 'pic': 'http://macro-oss.oss-cn-shenzhen.aliyuncs.com/mall/images/20180522/web.png', 'productSn': 'No86577', 'deleteStatus': 0, 'publishStatus': 1, 'newStatus': 1, 'recommandStatus': 1, 'verifyStatus': 1, 'sort': 100, 'sale': 0, 'price': 100.0, 'promotionPrice': None, 'giftGrowth': 0, 'giftPoint': 100, 'usePointLimit': None, 'subTitle': '111', 'originalPrice': 120.0, 'stock': 100, 'lowStock': 20, 'unit': 'д»¶', 'weight': 1000.0, 'previewStatus': 0, 'serviceIds': None, 'keywords': 'й“¶иүІжҳҹиҠ’еҲәз»ЈзҪ‘зәұеә•иЈӨ', 'note': 'й“¶иүІжҳҹиҠ’еҲәз»ЈзҪ‘зәұеә•иЈӨ', 'albumPics': None, 'detailTitle': 'й“¶иүІжҳҹиҠ’еҲәз»ЈзҪ‘зәұеә•иЈӨ', 'promotionStartTime': None, 'promotionEndTime': None, 'promotionPerLimit': None, 'promotionType': 0, 'brandName': 'дёғеҢ№зӢј', 'productCategoryName': 'еӨ–еҘ—', 'description': None, 'detailDesc': None, 'detailHtml': None, 'detailMobileHtml': None}, {'id': 2, 'brandId': 49, 'productCategoryId': 7, 'feightTemplateId': 0, 'productAttributeCategoryId': 0, 'name': 'й“¶иүІжҳҹиҠ’еҲәз»ЈзҪ‘зәұеә•иЈӨ2', 'pic': 'http://macro-oss.oss-cn-shenzhen.aliyuncs.com/mall/images/20180522/web.png', 'productSn': 'No86578', 'deleteStatus': 0, 'publishStatus': 1, 'newStatus': 1, 'recommandStatus': 1, 'verifyStatus': 1, 'sort': 1, 'sale': 0, 'price': 100.0, 'promotionPrice': None, 'giftGrowth': 0, 'giftPoint': 100, 'usePointLimit': None, 'subTitle': '111', 'originalPrice': 120.0, 'stock': 100, 'lowStock': 20, 'unit': 'д»¶', 'weight': 1000.0, 'previewStatus': 0, 'serviceIds': None, 'keywords': 'й“¶иүІжҳҹиҠ’еҲәз»ЈзҪ‘зәұеә•иЈӨ2', 'note': 'й“¶иүІжҳҹиҠ’еҲәз»ЈзҪ‘зәұеә•иЈӨ', 'albumPics': None, 'detailTitle': 'й“¶иүІжҳҹиҠ’еҲәз»ЈзҪ‘зәұеә•иЈӨ', 'promotionStartTime': None, 'promotionEndTime': None, 'promotionPerLimit': None, 'promotionType': 0, 'brandName': 'дёғеҢ№зӢј', 'productCategoryName': 'еӨ–еҘ—', 'description': None, 'detailDesc': None, 'detailHtml': None, 'detailMobileHtml': None}, {'id': 3, 'brandId': 1, 'productCategoryId': 7, 'feightTemplateId': 0, 'productAttributeCategoryId': 0, 'name': 'й“¶иүІжҳҹиҠ’еҲәз»ЈзҪ‘зәұеә•иЈӨ3', 'pic': 'http://macro-oss.oss-cn-shenzhen.aliyuncs.com/mall/images/20180522/web.png', 'productSn': 'No86579', 'deleteStatus': 0, 'publishStatus': 1, 'newStatus': 1, 'recommandStatus': 1, 'verifyStatus': 1, 'sort': 1, 'sale': 0, 'price': 100.0, 'promotionPrice': None, 'giftGrowth': 0, 'giftPoint': 100, 'usePointLimit': None, 'subTitle': '111', 'originalPrice': 120.0, 'stock': 100, 'lowStock': 20, 'unit': 'д»¶', 'weight': 1000.0, 'previewStatus': 0, 'serviceIds': None, 'keywords': 'й“¶иүІжҳҹиҠ’еҲәз»ЈзҪ‘зәұеә•иЈӨ3', 'note': 'й“¶иүІжҳҹиҠ’еҲәз»ЈзҪ‘зәұеә•иЈӨ', 'albumPics': None, 'detailTitle': 'й“¶иүІжҳҹиҠ’еҲәз»ЈзҪ‘зәұеә•иЈӨ', 'promotionStartTime': None, 'promotionEndTime': None, 'promotionPerLimit': None, 'promotionType': 0, 'brandName': 'дёҮе’Ң', 'productCategoryName': 'еӨ–еҘ—', 'description': None, 'detailDesc': None, 'detailHtml': None, 'detailMobileHtml': None}, {'id': 4, 'brandId': 1, 'productCategoryId': 7, 'feightTemplateId': 0, 'productAttributeCategoryId': 0, 'name': 'й“¶иүІжҳҹиҠ’еҲәз»ЈзҪ‘зәұеә•иЈӨ4', 'pic': 'http://macro-oss.oss-cn-shenzhen.aliyuncs.com/mall/images/20180522/web.png', 'productSn': 'No86580', 'deleteStatus': 0, 'publishStatus': 1, 'newStatus': 1, 'recommandStatus': 1, 'verifyStatus': 1, 'sort': 1, 'sale': 0, 'price': 100.0, 'promotionPrice': None, 'giftGrowth': 0, 'giftPoint': 100, 'usePointLimit': None, 'subTitle': '111', 'originalPrice': 120.0, 'stock': 100, 'lowStock': 20, 'unit': 'д»¶', 'weight': 1000.0, 'previewStatus': 0, 'serviceIds': None, 'keywords': 'й“¶иүІжҳҹиҠ’еҲәз»ЈзҪ‘зәұеә•иЈӨ4', 'note': 'й“¶иүІжҳҹиҠ’еҲәз»ЈзҪ‘зәұеә•иЈӨ', 'albumPics': None, 'detailTitle': 'й“¶иүІжҳҹиҠ’еҲәз»ЈзҪ‘зәұеә•иЈӨ', 'promotionStartTime': None, 'promotionEndTime': None, 'promotionPerLimit': None, 'promotionType': 0, 'brandName': 'дёҮе’Ң', 'productCategoryName': 'еӨ–еҘ—', 'description': None, 'detailDesc': None, 'detailHtml': None, 'detailMobileHtml': None}, {'id': 5, 'brandId': 1, 'productCategoryId': 7, 'feightTemplateId': 0, 'productAttributeCategoryId': 0, 'name': 'й“¶иүІжҳҹиҠ’еҲәз»ЈзҪ‘зәұеә•иЈӨ5', 'pic': 'http://macro-oss.oss-cn-shenzhen.aliyuncs.com/mall/images/20180522/web.png', 'productSn': 'No86581', 'deleteStatus': 0, 'publishStatus': 0, 'newStatus': 1, 'recommandStatus': 1, 'verifyStatus': 1, 'sort': 1, 'sale': 0, 'price': 100.0, 'promotionPrice': None, 'giftGrowth': 0, 'giftPoint': 100, 'usePointLimit': None, 'subTitle': '111', 'originalPrice': 120.0, 'stock': 100, 'lowStock': 20, 'unit': 'д»¶', 'weight': 1000.0, 'previewStatus': 0, 'serviceIds': None, 'keywords': 'й“¶иүІжҳҹиҠ’еҲәз»ЈзҪ‘зәұеә•иЈӨ5', 'note': 'й“¶иүІжҳҹиҠ’еҲәз»ЈзҪ‘зәұеә•иЈӨ', 'albumPics': None, 'detailTitle': 'й“¶иүІжҳҹиҠ’еҲәз»ЈзҪ‘зәұеә•иЈӨ', 'promotionStartTime': None, 'promotionEndTime': None, 'promotionPerLimit': None, 'promotionType': 0, 'brandName': 'дёҮе’Ң', 'productCategoryName': 'еӨ–еҘ—', 'description': None, 'detailDesc': None, 'detailHtml': None, 'detailMobileHtml': None}]
[32mINFO    [0m test_product:test_product.py:25 е•Ҷе“ҒжңүеӨҡе°‘зұ»:5
[32mINFO    [0m test_product:test_product.py:36 е•Ҷе“ҒеҲ—иЎЁжҹҘиҜўжөӢиҜ•йҖҡиҝҮ